{
	"1677n91h94.iok.la":{
		/*微信公众号、订阅号信息配置*/
		"wechat":{
			"appid":"wx88ee9996c5695a7d",
			"appSecret":"8f42a99abfd6d690242311d34194bd33",
			"token":"helloklf",
			"host":"1677n91h94.iok.la"
		},

		/*微信api代理设置*/
		"apiproxy":{
			/*参数忽略列表：增加到此处的参数，将不会添加到get请求url或post请求body中*/
			"ignore":["files","filename"],
			/*文件字段：将要上传的文件以base64方式编码，并通过此字段传递，默认值files*/
			"files_field":"files",
			/*事件地址前缀*/
			"prefix":"1677n91h94.iok.la:"
			/*腾讯微信服务器地址：此参数默认为api.weixin.qq.com，可以不指定*/
			//"wechat_host":"api.weixin.qq.com"
		},

		/*微信api列表*/
		"wechatapi":
		[
			/*菜单*/
			{
				"url":"/cgi-bin/menu/create",
				"event":"menu.add",
				"desc":"创建自定义菜单"
			},
			{
				"url":"/cgi-bin/menu/delete",
				"event":"menu.delete",
				"desc":"删除自定义菜单"
			},
			{
				"url":"/cgi-bin/menu/get",
				"event":"menu.getlist",
				"method":"get",
				"desc":"获取自定义菜单"
			},
			
			
			/*客服*/
			{
				"url":"/customservice/kfaccount/add",
				"event":"customservice.add",
				"desc":"添加客服"
			},
			{
				"url":"/customservice/kfaccount/update",
				"event":"customservice.update",
				"desc":"修改客服"
			},
			{
				"url":"/customservice/kfaccount/del",
				"event":"customservice.delete",
				"desc":"删除客服"
			},
			{
				"url":"/customservice/kfaccount/uploadheadimg",
				"event":"customservice.uploadheadimg",
				"desc":"设置客服头像"
			},
			{
				"url":"/cgi-bin/customservice/getkflist",
				"event":"customservice.getlist",
				"desc":"获取所有客服"
			},
			{
				"url":"/cgi-bin/message/custom/send",
				"event":"customservice.sendmsg",
				"desc":"发送客服消息"
			},
			
			/*临时资源*/
			{
				"url":"/cgi-bin/media/upload?type=image",
				"event":"temp.image.add",
				"desc":"新增图片"
			},
			{
				"url":"/cgi-bin/media/upload?type=voice",
				"event":"temp.voice.add",
				"desc":"新增语音"
			},
			{
				"url":"/cgi-bin/media/upload?type=video",
				"event":"temp.video.add",
				"desc":"新增视频"
			},
			{
				"url":"/cgi-bin/media/upload?type=thumb",
				"event":"temp.thumb.add",
				"desc":"新增缩略图"
			},
			{
				"url":"/cgi-bin/media/get",
				"event":"temp.get",
				"desc":"获取临时素材文件"
			},
			

			/*永久素材*/
			{
				"url":"/cgi-bin/material/add_material?type=image",
				"event":"material.image.add",
				"desc":"新增图片"
			},
			{
				"url":"/cgi-bin/material/add_material?type=voice",
				"event":"material.voice.add",
				"desc":"新增语音"
			},
			{
				"url":"/cgi-bin/material/add_material?type=video",
				"event":"material.video.add",
				"desc":"新增视频"
			},
			{
				"url":"/cgi-bin/material/add_material?type=thumb",
				"event":"material.thumb.add",
				"desc":"新增缩略图"
			},
			{
				"url":"/cgi-bin/material/add_news",
				"event":"material.news.add",
				"desc":"新增文章"
			},
			{
				"url":"/cgi-bin/material/update_news",
				"event":"material.news.update",
				"desc":"修改文章"
			},
			{
				"url":"/cgi-bin/material/get_material",
				"event":"material.get",
				"desc":"获取永久素材"
			},
			{
				"url":"/cgi-bin/material/get_materialcount",
				"event":"material.sum",
				"desc":"获取永久素材总数"
			},
			{
				"url":"/cgi-bin/material/batchget_material",
				"event":"material.getlist",
				"desc":"获取永久素材列表"
			},
			{
				"url":"/cgi-bin/material/del_material",
				"event":"material.delete",
				"desc":"删除永久素材"
			},
			
			/*JS SDK*/
			{
				"url":"/cgi-bin/ticket/getticket?type=jsapi",
				"event":"jsapi.ticket.get",
				"desc":"获取JSSDK ticket"
			}
		]
	}
}